<?xml version="1.0" encoding="UTF-8" standalone="no"?>
<svg
   width="20"
   height="20"
   viewBox="0 0 24 24"
   fill="none"
   stroke="#606060"
   stroke-width="2"
   stroke-linecap="round"
   stroke-linejoin="round"
   class="feather feather-check"
   version="1.1"
   id="svg1414"
   sodipodi:docname="validate-syntax-red.svg"
   xml:space="preserve"
   inkscape:version="1.2.2 (b0a8486541, 2022-12-01)"
   xmlns:inkscape="http://www.inkscape.org/namespaces/inkscape"
   xmlns:sodipodi="http://sodipodi.sourceforge.net/DTD/sodipodi-0.dtd"
   xmlns="http://www.w3.org/2000/svg"
   xmlns:svg="http://www.w3.org/2000/svg"><defs
     id="defs1418" /><sodipodi:namedview
     id="namedview1416"
     pagecolor="#ffffff"
     bordercolor="#000000"
     borderopacity="0.25"
     inkscape:showpageshadow="2"
     inkscape:pageopacity="0.0"
     inkscape:pagecheckerboard="0"
     inkscape:deskcolor="#d1d1d1"
     showgrid="false"
     inkscape:zoom="36.85"
     inkscape:cx="10.027137"
     inkscape:cy="10"
     inkscape:window-width="1920"
     inkscape:window-height="1136"
     inkscape:window-x="0"
     inkscape:window-y="0"
     inkscape:window-maximized="1"
     inkscape:current-layer="svg1414" /><g
     style="fill:none;stroke:#606060;stroke-width:2;stroke-linecap:round;stroke-linejoin:round"
     id="g1898"><path
       d="M 14,2 H 6 A 2,2 0 0 0 4,4 v 16 a 2,2 0 0 0 2,2 h 12 a 2,2 0 0 0 2,-2 V 8 Z"
       id="path1877" /><polyline
       points="14 2 14 8 20 8"
       id="polyline1879" /><line
       x1="16"
       y1="13"
       x2="8"
       y2="13"
       id="line1881" /><line
       x1="16"
       y1="17"
       x2="8"
       y2="17"
       id="line1883" /><polyline
       points="10 9 9 9 8 9"
       id="polyline1885" /></g><polyline
     points="20 6 9 17 4 12"
     id="polyline1412"
     style="stroke:#ff1600;stroke-opacity:1"
     transform="matrix(1.2206001,0,0,1.5200109,-2.7139229,-4.7367085)" /><polyline
     points="20 6 9 17 4 12"
     id="polyline1760"
     style="stroke:none;stroke-opacity:1"
     transform="matrix(1.2206001,0,0,1.5200109,-2.7139229,-4.7367085)" /></svg>
